^C:\USERS\DONLAWRIDE\REPOS\OPENCV\OPENCVAPP\DEBUG\OPENCVAPP.OBJ|C:\USERS\DONLAWRIDE\REPOS\OPENCV\OPENCVAPP\DEBUG\STDAFX.OBJ
C:\USERS\DONLAWRIDE\REPOS\OPENCV\DEBUG\OPENCVAPP.ILK
C:\USERS\DONLAWRIDE\REPOS\OPENCV\DEBUG\OPENCVAPP.EXE
C:\USERS\DONLAWRIDE\REPOS\OPENCV\DEBUG\OPENCVAPP.PDB
